{
  "type": "service_account",
  "project_id": "labster-9877f",
  "private_key_id": "7d004a11c196da867cddca113ed2aa1740184daf",
  "private_key": "-----BEGIN PRIVATE KEY-----\nMIIEvQIBADANBgkqhkiG9w0BAQEFAASCBKcwggSjAgEAAoIBAQCXGAsrCnemdyz3\niHog7OlPrEpy4ea+iOE8v4g9x34yk4iJklG3qsc4Pvb61lXsjWlvr8Ih93Q1J59A\n5gK5C7YQRjApqiURytOOm1kmOEPaoWQmF1rarhXmC/mwfw8YOA3j2b+EE9ywW0sT\nUY3hei2S3b3MVUVB1c/1sQJC8ag5VB3C4AbekFQx9pJRfYC1+FntwLS9LjpNfZaM\nMZm034DJwcD9KSzXU1Wei19hi8OJgpCjGkoyT4/I+FVU//MKDevfM2FaibRqPNmR\ntNBwpscMv3yD3HYzvCXDS3ZfOJiIjFdAaSXeezA5Vzs/67cN9jYVCl/sefou5VeU\nzwsRxnB5AgMBAAECggEAB3UKOPVD2kqomg2kOJADeaW/WulLIER/prQ79/NHMgDy\nTMGxNM5so9MG2HKzdPKZyesJHmIMhsm/8obSUgaeRzI8Evew65H/Bs0kPkIbieS9\n8r9Vc9R0Z5E7hM+7PjX8QYPauoBnHzhAfcUK//ORbrL/OMQwoBhsa3o4eHbrwgef\neTHjr9EZdpsErhRbizTnwCSy8Z1qFCxyCWpd9rXbxnySC7qcgr14pt8YiL5rxjdr\nnlobjrBtt+AL1ovJgSACOVac49lE52XxyWwcTGxYKbrwG7VtoKPZYdjsxcRLnZSs\n+c4C0ouqR54+kDjV8D1LAILpI0lUWFnTj7O7ElNWDQKBgQDHP2B5RcTi7PMF8Zas\noPLH7NAyVcSOPFzDGCJXps5/qeW6ExsYb5CWvhkqV/jaoTNr6OwVCqQjsaSBqjuI\n78FTwKYmBMqxCznEEm4XkhVj7h41gEag1HMxNrvlpDkUkCvKAUDAWka8/BvLhulS\n10CaWA2HsLiUOiZG8okXW1HcfwKBgQDCIW0RoDCRasolNtA/w1fpR5An/sEZZjQB\nqKsHrvukA2+/zOvldj7pRYIgk+xolrrmU3Q0pvZ7OBF7VEPBXO8j0Y5iH6Rg2/xZ\nzAUq/Ws8mKoDha8kZde7UNokPOEIKVqW4csxXky1dh9g0vR7/s5Blu85aIYGQmsX\nBTnMk0YXBwKBgHuMgwfwCVwlTbS7z5CP5LuvzpHHuS/xohuflXwAhT+IXFj7i+ul\nEmVGz1gAYOFA4B/juLB7frhbaQS2SGBrOtfyN5SPmBgcO9+nBfk7rmPevYCzYBhO\nZHd51x1YrcRgeaazDDG6SO7a7WlQ6NFjhD2wqAMhw/K19BI+Rl/jUmmFAoGARaMh\n8eGpqnBJRSItf8H+BhOCtaYf9JGB9Fphx6bQY9xLuNy0fiJ1nM4vSKpncnknYDnt\nhHmkDz1kn/3xNCq3Kf0g+zfoiko/cqLJ88rmLd2BlzPcSM0znuD472jbPEdBVMB4\nWCRAlhNiXCQwSU51BHg1Jj3FXfdzXNWmDymBSf8CgYEAsYZS+ZQkeS/2C58RKpPP\n+o4qMwbGT26mDNXA0E50Ws+Q9yOLS3bU0rRPNA5btK7pQd4/wPVP15k8NG41vm+y\nQs+8qNKhn+/viHzlwDiT2GXd0Kb5XNRiey+xZNUHGGg0BZjjzPIM0EUqKG8uKPR2\nEYKhB2SMnsOljvJ3MyvhCig=\n-----END PRIVATE KEY-----\n",
  "client_email": "labster-9877f@appspot.gserviceaccount.com",
  "client_id": "117310342810731400546",
  "auth_uri": "https://accounts.google.com/o/oauth2/auth",
  "token_uri": "https://accounts.google.com/o/oauth2/token",
  "auth_provider_x509_cert_url": "https://www.googleapis.com/oauth2/v1/certs",
  "client_x509_cert_url": "https://www.googleapis.com/robot/v1/metadata/x509/labster-9877f%40appspot.gserviceaccount.com"
}
